<?xml version="1.0" encoding="UTF-8" standalone="no"?>
<!-- Created with Inkscape (http://www.inkscape.org/) -->

<svg
   width="100"
   height="100"
   viewBox="-0.5 -0.5 1 1"
   version="1.1"
   id="svg5"
   inkscape:version="1.2.1 (9c6d41e410, 2022-07-14)"
   sodipodi:docname="hitbox.inkscape.svg"
   xmlns:inkscape="http://www.inkscape.org/namespaces/inkscape"
   xmlns:sodipodi="http://sodipodi.sourceforge.net/DTD/sodipodi-0.dtd"
   xmlns="http://www.w3.org/2000/svg"
   xmlns:svg="http://www.w3.org/2000/svg">
  <sodipodi:namedview
     id="namedview7"
     pagecolor="#ffffff"
     bordercolor="#999999"
     borderopacity="1"
     inkscape:showpageshadow="0"
     inkscape:pageopacity="0"
     inkscape:pagecheckerboard="0"
     inkscape:deskcolor="#d1d1d1"
     inkscape:document-units="px"
     showgrid="true"
     showguides="false"
     inkscape:zoom="2.8458333"
     inkscape:cx="133.52855"
     inkscape:cy="83.631039"
     inkscape:window-width="1600"
     inkscape:window-height="837"
     inkscape:window-x="-8"
     inkscape:window-y="-8"
     inkscape:window-maximized="1"
     inkscape:current-layer="layer1">
    <inkscape:grid
       type="xygrid"
       id="grid132"
       spacingx="0.01"
       spacingy="0.01"
       originx="0"
       originy="0" />
  </sodipodi:namedview>
  <defs
     id="defs2" />
  <g
     inkscape:label="Layer 1"
     inkscape:groupmode="layer"
     id="layer1">
    <path
       id="path1739"
       style="color:#000000;fill:#000000;-inkscape-stroke:none;stroke:none"
       d="m 0.47070313,-0.01757813 -0.0234375,0.02343751 0.005859,0.0078125 0.015625,-0.01757813 0.0175781,0.01757813 0.007813,-0.0078125 z m -0.94140626,0 -0.0234375,0.02343751 0.007813,0.0078125 0.015625,-0.01562501 0.0175781,0.01562501 0.005859,-0.0078125 z m 0.46783204,-0.42578125 C -0.24644716,-0.44181725 -0.44335937,-0.24393972 -0.44335938,0 c 0,0.12244817 0.0496161,0.23328794 0.12984376,0.31351562 l 0.005332,-0.005332 C -0.38693105,0.22943614 -0.43554687,0.12055663 -0.43554688,0 c 0,-0.24111327 0.19443361,-0.43554687 0.43554688,-0.43554688 0.24111327,0 0.43554687,0.19443361 0.43554688,0.43554688 0,0.12055663 -0.0486158,0.22943614 -0.12736329,0.30818359 l 0.005332,0.005332 C 0.39374331,0.23328793 0.44335937,0.12244817 0.44335938,0 0.44335938,-0.24489635 0.24489635,-0.44335937 0,-0.44335938 c -9.5662635e-4,0 -0.00191589,-6.04e-6 -0.00287109,0 z M 0,-0.50585938 c -0.27884402,0 -0.50585938,0.22701536 -0.50585938,0.50585938 0,0.13942201 0.0567502,0.26589079 0.14835938,0.3575 l 0.007891,-0.007891 C -0.43896446,0.26025429 -0.49414062,0.13671981 -0.49414062,0 c 0,-0.27343963 0.22070099,-0.49414059 0.49414062,-0.49414062 0.27343963,3e-8 0.49414062,0.22070099 0.49414062,0.49414062 0,0.13671981 -0.0551762,0.26025429 -0.14453124,0.34960938 L 0.3575,0.3575 C 0.44910921,0.26589079 0.50585938,0.13942201 0.50585938,0 0.50585938,-0.27884402 0.27884402,-0.50585938 0,-0.50585938 Z M 0,-0.56 a 0.04,0.06 0 0 0 -0.04,0.06 0.04,0.06 0 0 0 1.953e-5,0.001602 A 0.5,0.5 0 0 1 0,-0.5 0.5,0.5 0 0 1 0.03998047,-0.49839844 0.04,0.06 0 0 0 0.04,-0.5 0.04,0.06 0 0 0 0,-0.56 Z" />
  </g>
</svg>
